(『EScape』」のメンバーで音楽番組に出演する
ため、ローカル局のスタジオにやつてきたが……り

瑞希、なんだか難しい顔をしてるみたいだけど……
ごうかしたのか?

レン
はい、少し考えごとをしていました。

考え事っつて本o

はい。この前教えてもらつた、
私達EScapeの魅力についてです。

この長所を伸ばす方法を、考えていました。
はもっともっと、気にさせたいな。

なるほど、それはいいかもしれない。
何か、いいアイデイィイアでも浮かんだのか?

3人でお面を被るというのは、ごどうでしよう。
7表情が見えないので、とても気になるかと。

いや、確かに気にはなるけどご、やめよう。
ファンのみんなは、瑞希達の顔が見たいわけだし……。

なるほど、顔が見たい……
では、完全に見そえない方向はNGで。

なら折束案で、仮面を被るというのはごどうでしよう。
仮面舞踏会。……なんだかドキドキします。

うん、それもまぁ企画としては面白いけど……
EScapeはもっと、自然体でいいと思うんだけどな。

俺も今、瑞希の事が気になつて声を掛けたんだし。
そのままでも、十分気になる存在だと思うよ。

おお……。たしかにレイPは、
いつも私のことを気にしてこれています。

ありがとうございます。おかげで、迷いが晴れました。
いつもごおりの私で、頑張ろうと思います。

いつもどおり……まずは、軽く手品など。
KoiE泌

ああ、いつもどおりで……つて、瑞希/ 手品も
ダメだぞ、持ち時間はそんなにないんだからなー /

